<?xml version="1.0" encoding="UTF-8" standalone="no"?>
<svg viewBox="0 0 126 118" version="1.1" xmlns="http://www.w3.org/2000/svg" xmlns:xlink="http://www.w3.org/1999/xlink" xmlns:sketch="http://www.bohemiancoding.com/sketch/ns">
    <title>logo-pink</title>
    <description>Created with Sketch (http://www.bohemiancoding.com/sketch)</description>
    <defs>
        <linearGradient x1="49.9995401%" y1="0.000198221949%" x2="49.9995401%" y2="100.000198%" id="linearGradient-1">
            <stop stop-color="#AA214D" offset="0%"></stop>
            <stop stop-color="#E60983" offset="100%"></stop>
        </linearGradient>
    </defs>
    <g id="Page-1" stroke="none" stroke-width="1" fill="none" fill-rule="evenodd" sketch:type="MSPage">
        <g id="FM_logo_dark" sketch:type="MSLayerGroup" transform="translate(0.000000, -1.000000)">
            <path d="M106.448037,48.7710196 C101.317872,50.1407451 96.0940734,50.5398627 91.130367,49.7763333 C83.9402752,48.7640784 77.6969174,46.1021373 73.3447156,43.5894314 C55.8873578,33.9411961 33.9425505,18.0227647 12.3456881,29.8158235 C17.9833211,18.2957843 23.1366055,8.96221569 30.4411376,0.422254902 C12.2497431,11.437902 0.0924770642,31.4261765 0.0924770642,54.2591765 C0.0924770642,88.9905098 28.225156,117.146235 62.9294862,117.146235 C97.6338165,117.146235 125.767651,88.9905098 125.767651,54.2591765 C125.767651,48.8219216 125.075229,43.5431569 123.779394,38.5108039 C119.168257,43.3187255 113.282092,46.9478039 106.448037,48.7710196" id="Shape" fill="url(#linearGradient-1)" sketch:type="MSShapeGroup"></path>
            <path d="M20.2732844,84.842 L27.6853211,84.842 L27.6853211,65.6762549 L31.9808807,65.6762549 L31.9808807,60.0504314 L27.6853211,60.0504314 L27.6853211,59.0659412 C27.6853211,56.9650784 29.3348807,56.7429608 29.9602569,56.7429608 L33.0848257,56.7429608 L33.0848257,51.161098 L29.7383119,51.161098 C26.1224587,51.161098 20.2732844,51.7846471 20.2732844,58.755902 L20.2732844,60.0492745 L17.5070642,60.0492745 L17.5070642,65.675098 L20.2732844,65.675098 L20.2732844,84.842 L20.2732844,84.842 L20.2732844,84.842 L20.2732844,84.842 Z M20.2732844,84.842" id="Shape" fill="#FFFFFF" sketch:type="MSShapeGroup"></path>
            <path d="M81.7485688,60.5293725 C79.7395046,58.4285098 76.9732844,58.0270784 75.2324037,58.0270784 C71.4373761,58.0270784 68.8954128,60.0388627 67.3764771,62.447451 C65.4136514,58.7871373 62.4220183,58.0270784 60.2326239,58.0270784 C55.5937431,58.0270784 53.9857982,60.4842549 53.4043486,61.5127059 L53.3153394,61.5127059 L53.3153394,58.873902 L46.3968991,58.873902 L46.3968991,83.6689412 L53.8066239,83.6689412 L53.8066239,70.4922745 C53.8066239,69.0161176 53.8066239,64.9948627 58.0050826,64.9948627 C61.707633,64.9948627 61.707633,68.8356471 61.707633,70.176451 L61.707633,83.6689412 L69.1196697,83.6689412 L69.1196697,70.1348039 C69.1196697,68.7500392 69.1196697,64.9960196 73.2256514,64.9960196 C77.0195229,64.9960196 77.0195229,68.4816471 77.0195229,70.4934314 L77.0195229,83.670098 L84.4269358,83.670098 L84.4269358,70.1348039 C84.4257798,64.6373922 84.072055,62.986549 81.7485688,60.5293725 C81.7485688,60.5293725 84.072055,62.986549 81.7485688,60.5293725 L81.7485688,60.5293725 L81.7485688,60.5293725 Z M81.7485688,60.5293725" id="Shape" fill="#FFFFFF" sketch:type="MSShapeGroup"></path>
            <path d="M35.8001835,89.5353922 L33.5229358,89.1328039 L40.8702385,47.4313725 L43.1474862,47.8339608 L35.8001835,89.5353922 Z M35.8001835,89.5353922" id="Shape" fill="#FFFFFF" sketch:type="MSShapeGroup"></path>
        </g>
    </g>
</svg>